code/pld/new_glue/xosera_glue.vcd
$version hacked together by a script
$date 2024-05-05T13:42:22+01:00 $end
$timescale 1ns $end
$scope module TOP $end
$scope module ORDER0 $end
$var wire 1 ! SD_CLK $end
$var wire 1 " SYS_RESET $end
$var wire 1 # SYS_EXPSEL $end
$var wire 1 $ SYS_RnW $end
$var wire 23 % SYS_ADDR $end
$var wire 7 & SD_STATE $end
$var wire 1 ' SD_CS $end
$var wire 1 ( SD_RAS $end
$var wire 1 ) SD_CAS $end
$var wire 1 * SD_WE $end
$var wire 1 + REFRESH_Q $end
$var wire 1 , SD_DTACK $end
$var wire 13 - SD_ADDR $end
$upscope $end
$upscope $end
$enddefinitions
$end
#0
#100
x!
0"
1#
1$
b00000000000001000000000 %
bxxxxxxx &
x'
x(
x)
x*
x+
x,
bxxxxxxxxxxxxx -
#200
1!
0"
1#
1$
b00000000000001000000000 %
b0000000 &
0'
0(
0)
0*
0+
0,
b0000000000000 -
#300
0!
0"
1#
1$
b00000000000001000000000 %
b0000000 &
0'
0(
0)
0*
0+
0,
b0000000000000 -
#400
1!
0"
1#
1$
b00000000000001000000000 %
b0000000 &
0'
0(
0)
0*
0+
0,
b0000000000000 -
#500
0!
0"
1#
1$
b00000000000001000000000 %
b0000000 &
0'
0(
0)
0*
0+
0,
b0000000000000 -
#600
1!
0"
1#
1$
b00000000000001000000000 %
b0000000 &
0'
0(
0)
0*
0+
0,
b0000000000000 -
#700
0!
0"
1#
1$
b00000000000001000000000 %
b0000000 &
0'
0(
0)
0*
0+
0,
b0000000000000 -
#800
1!
1"
1#
1$
b00000000000001000000000 %
b0000001 &
0'
0(
0)
0*
0+
0,
b0000000000000 -
#900
0!
1"
1#
1$
b00000000000001000000000 %
b0000001 &
0'
0(
0)
0*
0+
0,
b0000000000000 -
#1000
1!
1"
1#
1$
b00000000000001000000000 %
b0010011 &
0'
0(
1)
0*
0+
0,
b0010000000000 -
#1100
0!
1"
1#
1$
b00000000000001000000000 %
b0010011 &
0'
0(
1)
0*
0+
0,
b0010000000000 -
#1200
1!
1"
1#
1$
b00000000000001000000000 %
b0001001 &
0'
0(
0)
1*
0+
0,
b0000000000000 -
#1300
0!
1"
1#
1$
b00000000000001000000000 %
b0001001 &
0'
0(
0)
1*
0+
0,
b0000000000000 -
#1400
1!
1"
1#
1$
b00000000000001000000000 %
b0001011 &
0'
0(
0)
1*
0+
0,
b0000000000000 -
#1500
0!
1"
1#
1$
b00000000000001000000000 %
b0001011 &
0'
0(
0)
1*
0+
0,
b0000000000000 -
#1600
1!
1"
1#
1$
b00000000000001000000000 %
b0000011 &
0'
0(
0)
0*
0+
0,
b0001000010000 -
#1700
0!
1"
1#
1$
b00000000000001000000000 %
b0000011 &
0'
0(
0)
0*
0+
0,
b0001000010000 -
#1800
1!
1"
1#
1$
b00000000000001000000000 %
b1000001 &
1'
0(
0)
0*
0+
0,
b0000000000000 -
#1900
0!
1"
1#
1$
b00000000000001000000000 %
b1000001 &
1'
0(
0)
0*
0+
0,
b0000000000000 -
#2000
1!
1"
1#
1$
b00000000000001000000000 %
b1000001 &
1'
0(
0)
0*
0+
0,
b0000000000000 -
#2100
0!
1"
1#
1$
b00000000000001000000000 %
b1000001 &
1'
0(
0)
0*
0+
0,
b0000000000000 -
#2200
1!
1"
1#
1$
b00000000000001000000000 %
b1000001 &
1'
0(
0)
0*
0+
0,
b0000000000000 -
#2300
0!
1"
1#
1$
b00000000000001000000000 %
b1000001 &
1'
0(
0)
0*
0+
0,
b0000000000000 -
#2400
1!
1"
1#
1$
b00000000000001000000000 %
b1000001 &
1'
0(
0)
0*
0+
0,
b0000000000000 -
#2500
0!
1"
1#
1$
b00000000000001000000000 %
b1000001 &
1'
0(
0)
0*
0+
0,
b0000000000000 -
#2600
1!
1"
1#
1$
b00000000000001000000000 %
b1000001 &
1'
0(
0)
0*
0+
0,
b0000000000000 -
#2700
0!
1"
1#
1$
b00000000000001000000000 %
b1000001 &
1'
0(
0)
0*
0+
0,
b0000000000000 -
#2800
1!
1"
1#
1$
b00000000000001000000000 %
b1000001 &
1'
0(
0)
0*
0+
0,
b0000000000000 -
#2900
0!
1"
1#
1$
b00000000000001000000000 %
b1000001 &
1'
0(
0)
0*
0+
0,
b0000000000000 -
#3000
1!
1"
1#
1$
b00000000000001000000000 %
b1000001 &
1'
0(
0)
0*
0+
0,
b0000000000000 -
#3100
0!
1"
1#
1$
b00000000000001000000000 %
b1000001 &
1'
0(
0)
0*
0+
0,
b0000000000000 -
#3200
1!
1"
1#
1$
b00000000000001000000000 %
b1000001 &
1'
0(
0)
0*
0+
0,
b0000000000000 -
#3300
0!
1"
1#
1$
b00000000000001000000000 %
b1000001 &
1'
0(
0)
0*
0+
0,
b0000000000000 -
#3400
1!
1"
1#
1$
b00000000000001000000000 %
b1000001 &
1'
0(
0)
0*
0+
0,
b0000000000000 -
#3500
0!
1"
1#
1$
b00000000000001000000000 %
b1000001 &
1'
0(
0)
0*
0+
0,
b0000000000000 -
#3600
1!
1"
1#
1$
b00000000000001000000000 %
b1000001 &
1'
0(
0)
0*
0+
0,
b0000000000000 -
#3700
0!
1"
1#
1$
b00000000000001000000000 %
b1000001 &
1'
0(
0)
0*
0+
0,
b0000000000000 -
#3800
1!
1"
1#
1$
b00000000000001000000000 %
b1000001 &
1'
0(
0)
0*
0+
0,
b0000000000000 -
#3900
0!
1"
1#
1$
b00000000000001000000000 %
b1000001 &
1'
0(
0)
0*
0+
0,
b0000000000000 -
#4000
1!
1"
1#
1$
b00000000000001000000000 %
b1000001 &
1'
0(
0)
0*
0+
0,
b0000000000000 -
#4100
0!
1"
1#
1$
b00000000000001000000000 %
b1000001 &
1'
0(
0)
0*
0+
0,
b0000000000000 -
#4200
1!
1"
1#
1$
b00000000000001000000000 %
b1000001 &
1'
0(
0)
0*
0+
0,
b0000000000000 -
#4300
0!
1"
1#
1$
b00000000000001000000000 %
b1000001 &
1'
0(
0)
0*
0+
0,
b0000000000000 -
#4400
1!
1"
1#
1$
b00000000000001000000000 %
b1000001 &
1'
0(
0)
0*
0+
0,
b0000000000000 -
#4500
0!
1"
1#
1$
b00000000000001000000000 %
b1000001 &
1'
0(
0)
0*
0+
0,
b0000000000000 -
#4600
1!
1"
1#
1$
b00000000000001000000000 %
b1000001 &
1'
0(
0)
0*
0+
0,
b0000000000000 -
#4700
0!
1"
1#
1$
b00000000000001000000000 %
b1000001 &
1'
0(
0)
0*
0+
0,
b0000000000000 -
#4800
1!
1"
1#
1$
b00000000000001000000000 %
b1000001 &
1'
0(
0)
0*
0+
0,
b0000000000000 -
#4900
0!
1"
0#
1$
b00000000000001000000000 %
b1000001 &
1'
0(
0)
0*
0+
0,
b0000000000000 -
#5000
1!
1"
0#
1$
b00000000000001000000000 %
b0011001 &
0'
0(
1)
1*
0+
0,
b0000000000001 -
#5100
0!
1"
0#
1$
b00000000000001000000000 %
b0011001 &
0'
0(
1)
1*
0+
0,
b0000000000001 -
#5200
1!
1"
0#
1$
b00000000000001000000000 %
b0101001 &
0'
1(
0)
1*
0+
0,
b0000000000000 -
#5300
0!
1"
0#
1$
b00000000000001000000000 %
b0101001 &
0'
1(
0)
1*
0+
0,
b0000000000000 -
#5400
1!
1"
0#
1$
b00000000000001000000000 %
b0111101 &
0'
1(
1)
1*
0+
1,
b0000000000000 -
#5500
0!
1"
0#
1$
b00000000000001000000000 %
b0111101 &
0'
1(
1)
1*
0+
1,
b0000000000000 -
#5600
1!
1"
0#
1$
b00000000000001000000000 %
b0111101 &
0'
1(
1)
1*
0+
1,
b0000000000000 -
#5700
0!
1"
1#
1$
b00000000000001000000000 %
b0111101 &
0'
1(
1)
1*
0+
1,
b0000000000000 -
#5800
1!
1"
1#
1$
b00000000000001000000000 %
b0010001 &
0'
0(
1)
0*
0+
0,
b0010000000000 -
#5900
0!
1"
1#
1$
b00000000000001000000000 %
b0010001 &
0'
0(
1)
0*
0+
0,
b0010000000000 -
#6000
1!
1"
1#
1$
b00000000000001000000000 %
b1000001 &
1'
0(
0)
0*
0+
0,
b0000000000000 -
#6100
0!
1"
1#
1$
b00000000000001000000000 %
b1000001 &
1'
0(
0)
0*
0+
0,
b0000000000000 -
#6200
1!
1"
1#
1$
b00000000000001000000000 %
b1000001 &
1'
0(
0)
0*
0+
0,
b0000000000000 -
#6300
0!
1"
1#
1$
b00000000000001000000000 %
b1000001 &
1'
0(
0)
0*
0+
0,
b0000000000000 -
#6400
1!
1"
1#
1$
b00000000000001000000000 %
b1000001 &
1'
0(
0)
0*
1+
0,
b0000000000000 -
#6500
0!
1"
1#
1$
b00000000000001000000000 %
b1000001 &
1'
0(
0)
0*
1+
0,
b0000000000000 -
#6600
1!
1"
1#
1$
b00000000000001000000000 %
b0010001 &
0'
0(
1)
0*
1+
0,
b0010000000000 -
#6700
0!
1"
1#
1$
b00000000000001000000000 %
b0010001 &
0'
0(
1)
0*
1+
0,
b0010000000000 -
#6800
1!
1"
1#
1$
b00000000000001000000000 %
b0001001 &
0'
0(
0)
1*
1+
0,
b0000000000000 -
#6900
0!
1"
1#
1$
b00000000000001000000000 %
b0001001 &
0'
0(
0)
1*
1+
0,
b0000000000000 -
#7000
1!
1"
1#
1$
b00000000000001000000000 %
b1000001 &
1'
0(
0)
0*
0+
0,
b0000000000000 -
#7100
0!
1"
1#
1$
b00000000000001000000000 %
b1000001 &
1'
0(
0)
0*
0+
0,
b0000000000000 -
#7200
1!
1"
1#
1$
b00000000000001000000000 %
b1000001 &
1'
0(
0)
0*
0+
0,
b0000000000000 -
#7300
0!
1"
1#
1$
b00000000000001000000000 %
b1000001 &
1'
0(
0)
0*
0+
0,
b0000000000000 -
#7400
1!
1"
1#
1$
b00000000000001000000000 %
b1000001 &
1'
0(
0)
0*
0+
0,
b0000000000000 -
#7500
0!
1"
1#
1$
b00000000000001000000000 %
b1000001 &
1'
0(
0)
0*
0+
0,
b0000000000000 -
#7600
1!
1"
1#
1$
b00000000000001000000000 %
b1000001 &
1'
0(
0)
0*
0+
0,
b0000000000000 -
#7700
0!
1"
1#
1$
b00000000000001000000000 %
b1000001 &
1'
0(
0)
0*
0+
0,
b0000000000000 -
#7800
1!
1"
1#
1$
b00000000000001000000000 %
b1000001 &
1'
0(
0)
0*
0+
0,
b0000000000000 -
#7900
0!
1"
1#
1$
b00000000000001000000000 %
b1000001 &
1'
0(
0)
0*
0+
0,
b0000000000000 -
#8000
1!
1"
1#
1$
b00000000000001000000000 %
b1000001 &
1'
0(
0)
0*
0+
0,
b0000000000000 -
#8100
0!
1"
1#
1$
b00000000000001000000000 %
b1000001 &
1'
0(
0)
0*
0+
0,
b0000000000000 -
#8200
1!
1"
1#
1$
b00000000000001000000000 %
b1000001 &
1'
0(
0)
0*
0+
0,
b0000000000000 -
#8300
0!
1"
1#
1$
b00000000000001000000000 %
b1000001 &
1'
0(
0)
0*
0+
0,
b0000000000000 -
#8400
1!
1"
1#
1$
b00000000000001000000000 %
b1000001 &
1'
0(
0)
0*
0+
0,
b0000000000000 -
#8500
0!
1"
1#
1$
b00000000000001000000000 %
b1000001 &
1'
0(
0)
0*
0+
0,
b0000000000000 -
#8600
1!
1"
1#
1$
b00000000000001000000000 %
b1000001 &
1'
0(
0)
0*
0+
0,
b0000000000000 -
#8700
0!
1"
1#
1$
b00000000000001000000000 %
b1000001 &
1'
0(
0)
0*
0+
0,
b0000000000000 -
#8800
1!
1"
1#
1$
b00000000000001000000000 %
b1000001 &
1'
0(
0)
0*
0+
0,
b0000000000000 -
#8900
0!
1"
1#
1$
b00000000000001000000000 %
b1000001 &
1'
0(
0)
0*
0+
0,
b0000000000000 -
#9000
1!
1"
1#
1$
b00000000000001000000000 %
b1000001 &
1'
0(
0)
0*
0+
0,
b0000000000000 -
#9100
0!
1"
1#
1$
b00000000000001000000000 %
b1000001 &
1'
0(
0)
0*
0+
0,
b0000000000000 -
#9200
1!
1"
1#
1$
b00000000000001000000000 %
b1000001 &
1'
0(
0)
0*
0+
0,
b0000000000000 -
#9300
0!
1"
1#
1$
b00000000000001000000000 %
b1000001 &
1'
0(
0)
0*
0+
0,
b0000000000000 -
#9400
1!
1"
1#
1$
b00000000000001000000000 %
b1000001 &
1'
0(
0)
0*
0+
0,
b0000000000000 -
#9500
0!
1"
1#
1$
b00000000000001000000000 %
b1000001 &
1'
0(
0)
0*
0+
0,
b0000000000000 -
#9600
1!
1"
1#
1$
b00000000000001000000000 %
b1000001 &
1'
0(
0)
0*
0+
0,
b0000000000000 -
#9700
0!
1"
1#
1$
b00000000000001000000000 %
b1000001 &
1'
0(
0)
0*
0+
0,
b0000000000000 -
#9800
1!
1"
1#
1$
b00000000000001000000000 %
b1000001 &
1'
0(
0)
0*
0+
0,
b0000000000000 -
#9900
0!
1"
1#
1$
b00000000000001000000000 %
b1000001 &
1'
0(
0)
0*
0+
0,
b0000000000000 -
#10000
1!
1"
1#
1$
b00000000000001000000000 %
b1000001 &
1'
0(
0)
0*
0+
0,
b0000000000000 -
#10100
0!
1"
1#
1$
b00000000000001000000000 %
b1000001 &
1'
0(
0)
0*
0+
0,
b0000000000000 -
#10200
1!
1"
1#
1$
b00000000000001000000000 %
b1000001 &
1'
0(
0)
0*
0+
0,
b0000000000000 -
#10300
0!
1"
1#
1$
b00000000000001000000000 %
b1000001 &
1'
0(
0)
0*
0+
0,
b0000000000000 -
#10400
1!
1"
1#
1$
b00000000000001000000000 %
b1000001 &
1'
0(
0)
0*
0+
0,
b0000000000000 -
#10500
0!
1"
1#
1$
b00000000000001000000000 %
b1000001 &
1'
0(
0)
0*
0+
0,
b0000000000000 -
#10600
1!
1"
1#
1$
b00000000000001000000000 %
b1000001 &
1'
0(
0)
0*
0+
0,
b0000000000000 -
#10700
0!
1"
1#
1$
b00000000000001000000000 %
b1000001 &
1'
0(
0)
0*
0+
0,
b0000000000000 -
#10800
1!
1"
1#
1$
b00000000000001000000000 %
b1000001 &
1'
0(
0)
0*
0+
0,
b0000000000000 -
#10900
0!
1"
1#
1$
b00000000000001000000000 %
b1000001 &
1'
0(
0)
0*
0+
0,
b0000000000000 -
#11000
1!
1"
1#
1$
b00000000000001000000000 %
b1000001 &
1'
0(
0)
0*
0+
0,
b0000000000000 -
#11100
0!
1"
1#
1$
b00000000000001000000000 %
b1000001 &
1'
0(
0)
0*
0+
0,
b0000000000000 -
#11200
1!
1"
1#
1$
b00000000000001000000000 %
b1000001 &
1'
0(
0)
0*
0+
0,
b0000000000000 -
#11300
0!
1"
1#
1$
b00000000000001000000000 %
b1000001 &
1'
0(
0)
0*
0+
0,
b0000000000000 -
#11400
1!
1"
1#
1$
b00000000000001000000000 %
b1000001 &
1'
0(
0)
0*
0+
0,
b0000000000000 -
#11500
0!
1"
1#
1$
b00000000000001000000000 %
b1000001 &
1'
0(
0)
0*
0+
0,
b0000000000000 -
#11600
1!
1"
1#
1$
b00000000000001000000000 %
b1000001 &
1'
0(
0)
0*
0+
0,
b0000000000000 -
#11700
0!
1"
1#
1$
b00000000000001000000000 %
b1000001 &
1'
0(
0)
0*
0+
0,
b0000000000000 -
#11800
1!
1"
1#
1$
b00000000000001000000000 %
b1000001 &
1'
0(
0)
0*
0+
0,
b0000000000000 -
#11900
0!
1"
1#
1$
b00000000000001000000000 %
b1000001 &
1'
0(
0)
0*
0+
0,
b0000000000000 -
#12000
1!
1"
1#
1$
b00000000000001000000000 %
b1000001 &
1'
0(
0)
0*
0+
0,
b0000000000000 -
#12100
0!
1"
1#
1$
b00000000000001000000000 %
b1000001 &
1'
0(
0)
0*
0+
0,
b0000000000000 -
#12200
1!
1"
1#
1$
b00000000000001000000000 %
b1000001 &
1'
0(
0)
0*
0+
0,
b0000000000000 -
#12300
0!
1"
1#
1$
b00000000000001000000000 %
b1000001 &
1'
0(
0)
0*
0+
0,
b0000000000000 -
#12400
1!
1"
1#
1$
b00000000000001000000000 %
b1000001 &
1'
0(
0)
0*
0+
0,
b0000000000000 -
#12500
0!
1"
1#
1$
b00000000000001000000000 %
b1000001 &
1'
0(
0)
0*
0+
0,
b0000000000000 -
#12600
1!
1"
1#
1$
b00000000000001000000000 %
b1000001 &
1'
0(
0)
0*
0+
0,
b0000000000000 -
#12700
0!
1"
1#
1$
b00000000000001000000000 %
b1000001 &
1'
0(
0)
0*
0+
0,
b0000000000000 -
#12800
1!
1"
1#
1$
b00000000000001000000000 %
b1000001 &
1'
0(
0)
0*
1+
0,
b0000000000000 -
#12900
0!
1"
1#
1$
b00000000000001000000000 %
b1000001 &
1'
0(
0)
0*
1+
0,
b0000000000000 -
#13000
1!
1"
1#
1$
b00000000000001000000000 %
b0010001 &
0'
0(
1)
0*
1+
0,
b0010000000000 -
#13100
0!
1"
1#
1$
b00000000000001000000000 %
b0010001 &
0'
0(
1)
0*
1+
0,
b0010000000000 -
#13200
1!
1"
1#
1$
b00000000000001000000000 %
b0001001 &
0'
0(
0)
1*
1+
0,
b0000000000000 -
#13300
0!
1"
1#
1$
b00000000000001000000000 %
b0001001 &
0'
0(
0)
1*
1+
0,
b0000000000000 -
#13400
1!
1"
1#
1$
b00000000000001000000000 %
b1000001 &
1'
0(
0)
0*
0+
0,
b0000000000000 -
#13500
0!
1"
1#
1$
b00000000000001000000000 %
b1000001 &
1'
0(
0)
0*
0+
0,
b0000000000000 -
