code/pld/new_glue/xosera_glue.vcd
$version hacked together by a script
$date 2024-05-05T11:10:19+01:00 $end
$timescale 1ns $end
$scope module TOP $end
$scope module ORDER0 $end
$var wire 1 ! SD_CLK $end
$var wire 1 " SYS_RESET $end
$var wire 7 # SD_STATE $end
$var wire 1 $ SD_CS $end
$var wire 1 % SD_RAS $end
$var wire 1 & SD_CAS $end
$var wire 1 ' SD_WE $end
$var wire 1 ( REFRESH_Q $end
$var wire 1 ) SYS_DTACK $end
$upscope $end
$upscope $end
$enddefinitions
$end
#0
#100
x!
0"
bxxxxxxx #
x$
x%
x&
x'
x(
x)
#200
0!
0"
b0000000 #
0$
0%
0&
0'
0(
x)
#300
1!
0"
b0000000 #
0$
0%
0&
0'
0(
x)
#400
0!
0"
b0000000 #
0$
0%
0&
0'
0(
x)
#500
1!
0"
b0000000 #
0$
0%
0&
0'
0(
x)
#600
0!
0"
b0000000 #
0$
0%
0&
0'
0(
x)
#700
1!
0"
b0000000 #
0$
0%
0&
0'
0(
x)
#800
0!
0"
b0000000 #
0$
0%
0&
0'
0(
x)
#900
1!
1"
b0000011 #
0$
0%
0&
0'
0(
z)
#1000
0!
1"
b1000011 #
1$
0%
0&
0'
0(
z)
#1100
1!
1"
b0000000 #
0$
0%
0&
0'
0(
z)
#1200
0!
1"
b0000011 #
0$
0%
0&
0'
0(
z)
#1300
1!
1"
b1000011 #
1$
0%
0&
0'
0(
z)
#1400
0!
1"
b0000000 #
0$
0%
0&
0'
0(
z)
#1500
1!
1"
b0000011 #
0$
0%
0&
0'
0(
z)
#1600
0!
1"
b1000011 #
1$
0%
0&
0'
0(
z)
#1700
1!
1"
b0000000 #
0$
0%
0&
0'
0(
z)
#1800
0!
1"
b0000011 #
0$
0%
0&
0'
0(
z)
#1900
1!
1"
b1000011 #
1$
0%
0&
0'
0(
z)
#2000
0!
1"
b0000000 #
0$
0%
0&
0'
0(
z)
#2100
1!
1"
b0000011 #
0$
0%
0&
0'
0(
z)
#2200
0!
1"
b1000011 #
1$
0%
0&
0'
0(
z)
#2300
1!
1"
b0000000 #
0$
0%
0&
0'
0(
z)
#2400
0!
1"
b0000011 #
0$
0%
0&
0'
0(
z)
#2500
1!
1"
b1000011 #
1$
0%
0&
0'
0(
z)
